{
    "socialMedia": {
        "facebook": {
            "width": 1200,
            "height": 630
        },
        "twitter": {
            "width": 1024,
            "height": 512
        },
        "google": {
            "width": 1200,
            "height": 630
        }
    },
    "footerNav": {
        "xs": {
            "width": 34,
            "height": 34,
            "width@2x": 68,
            "height@2x": 68
        }
    },
    "thumb": {
        "xs": {
            "width": 42,
            "height": 42,
            "width@2x": 84,
            "height@2x": 84
        },
        "sm": {
            "width": 42,
            "height": 42,
            "width@2x": 84,
            "height@2x": 84
        }
    },
    "default": {
        "xs": {
            "width": 150,
            "height": 150,
            "width@2x": 300,
            "height@2x": 300
        },
        "sm": {
            "width": 150,
            "height": 150,
            "width@2x": 300,
            "height@2x": 300
        }
    },
    "region-1": {
        "xs": {
            "width": 480,
            "height": 480,
            "width@2x": 960,
            "height@2x": 960
        },
        "sm": {
            "width": 720,
            "height": 320,
            "width@2x": 1440,
            "height@2x": 640
        }
    },
    "region-2": {
        "xs": {
            "width": 480,
            "height": 480,
            "width@2x": 960,
            "height@2x": 960
        },
        "sm": {
            "width": 720,
            "height": 320,
            "width@2x": 1440,
            "height@2x": 640
        }
    },
    "coverPhoto": {
        "xs": {
            "width": 360,
            "height": 280,
            "width@2x": 720,
            "height@2x": 560
        },
        "sm": {
            "width": 360,
            "height": 280,
            "width@2x": 720,
            "height@2x": 560
        }
    }
}
